Collate predicted values of a list of models into a large data frame. — collate_predictions • SahelGraphR
…
    Examples

# Generate an example dataset
swiss2 <- dplyr::bind_cols(swiss,
                          treatment = rbinom(seq(nrow(swiss)),1, 0.5)) |>
  dplyr::mutate(Education = Education + 2.5 * treatment)
reg1 <- lm(formula = Education ~ treatment, swiss2)
reg2 <- lm(formula = Education ~ treatment + Catholic, swiss2)
reg3 <- lm(formula = Education ~ treatment * Catholic, swiss2)
models <- list(reg1,
               reg2,
               reg3)
# Full predictions:
collate_predictions(models = models)
#> # A tibble: 141 × 11
#>    modelID .rowna…¹ Educa…² treat…³ .fitted .resid   .hat .sigma .cooksd .std.…⁴
#>      <int> <chr>      <dbl>   <int>   <dbl>  <dbl>  <dbl>  <dbl>   <dbl>   <dbl>
#>  1       1 Courtel…    12         0    11.3  0.679 0.0357   9.82 9.37e-5  0.0711
#>  2       1 Delemont     9         0    11.3 -2.32  0.0357   9.82 1.10e-3 -0.243 
#>  3       1 Franche…     7.5       1    13.0 -5.47  0.0526   9.79 9.31e-3 -0.579 
#>  4       1 Moutier      7         0    11.3 -4.32  0.0357   9.80 3.80e-3 -0.453 
#>  5       1 Neuvevi…    15         0    11.3  3.68  0.0357   9.81 2.75e-3  0.386 
#>  6       1 Porrent…     9.5       1    13.0 -3.47  0.0526   9.81 3.75e-3 -0.367 
#>  7       1 Broye        9.5       1    13.0 -3.47  0.0526   9.81 3.75e-3 -0.367 
#>  8       1 Glane        8         0    11.3 -3.32  0.0357   9.81 2.25e-3 -0.348 
#>  9       1 Gruyere      9.5       1    13.0 -3.47  0.0526   9.81 3.75e-3 -0.367 
#> 10       1 Sarine      13         0    11.3  1.68  0.0357   9.82 5.74e-4  0.176 
#> # … with 131 more rows, 1 more variable: Catholic <dbl>, and abbreviated
#> #   variable names ¹​.rownames, ²​Education, ³​treatment, ⁴​.std.resid
…
