Sahel Prepare data for sahel_ggcoefs() — sahel_prep_ggcoefs • SahelGraphR
…
 sahel_prep_ggcoefs(prodregs)
#> # A tibble: 32 × 7
#>    var_name           mht_family Variable.x Value.x Treatment Variable.y Value.y
#>    <fct>                   <dbl> <chr>        <dbl> <fct>     <chr>        <dbl>
#>  1 "Daily Cons.\n Ad…          1 ci95_0      NA     Control   avg0          6.31
#>  2 "Daily Cons.\n Ad…          1 ci95_1       0.865 Psychoso… avg1          7.29
#>  3 "Daily Cons.\n Ad…          1 ci95_2       1.17  Cash      avg2         10.4 
#>  4 "Daily Cons.\n Ad…          1 ci95_3       0.890 Full      avg3          9.48
#>  5 "Daily Consumptio…          1 ci95_0      NA     Control   avg0          5.55
#>  6 "Daily Consumptio…          1 ci95_1       2.88  Psychoso… avg1          7.50
#>  7 "Daily Consumptio…          1 ci95_2       2.17  Cash      avg2          7.93
#>  8 "Daily Consumptio…          1 ci95_3       2.85  Full      avg3          9.50
#>  9 "Daily Food Cons.…          1 ci95_0      NA     Control   avg0          7.57
#> 10 "Daily Food Cons.…          1 ci95_1       2.97  Psychoso… avg1          6.37
#> # ℹ 22 more rows
…
